{
  "info": {
    "totalrecordsperquery": 1,
    "totalrecords": 4971,
    "pages": 4971,
    "page": 1,
    "next": "https://api.harvardartmuseums.org/object?apikey=9f8c605c-9348-4a13-b0d8-ce8f7eb6fea5&culture=37528416&hasimage=1&size=1&sort=random&page=2"
  },
  "records": [
    {
      "copyright": null,
      "contextualtextcount": 0,
      "creditline": "Harvard Art Museums/Arthur M. Sackler Museum, Transfer from the Department of the Classics, Harvard University, Bequest of Henry W. Haynes, 1912",
      "accesslevel": 1,
      "dateoflastpageview": "2015-03-27",
      "classificationid": 45,
      "division": "Asian and Mediterranean Art",
      "markscount": 0,
      "publicationcount": 0,
      "totaluniquepageviews": 3,
      "contact": "am_asianmediterranean@harvard.edu",
      "colorcount": 0,
      "rank": 98011,
      "state": null,
      "id": 289881,
      "verificationleveldescription": "Unchecked. Object information has not been verified for completeness and has not been vetted",
      "period": null,
      "worktypes": [
        {
          "worktypeid": "207",
          "worktype": "lighting device"
        }
      ],
      "imagecount": 1,
      "totalpageviews": 5,
      "accessionyear": 1977,
      "standardreferencenumber": null,
      "signed": null,
      "classification": "Lighting Devices",
      "relatedcount": 0,
      "verificationlevel": 0,
      "primaryimageurl": "https://nrs.harvard.edu/urn-3:HUAM:INV056577_dynmc",
      "titlescount": 1,
      "peoplecount": 0,
      "style": null,
      "lastupdate": "2020-09-16T05:46:28-0400",
      "commentary": null,
      "periodid": null,
      "technique": null,
      "edition": null,
      "description": null,
      "medium": "Terracotta",
      "lendingpermissionlevel": 0,
      "title": "LAMP (BROKEN) UNVARNISHED. DISCUS ORNAMENTAL WITH A RAM RECLINING.",
      "accessionmethod": "Transfer",
      "provenance": null,
      "groupcount": 0,
      "dated": null,
      "department": "Department of Ancient and Byzantine Art & Numismatics",
      "dateend": 0,
      "url": "https://www.harvardartmuseums.org/collections/object/289881",
      "dateoffirstpageview": "2011-04-12",
      "century": null,
      "objectnumber": "1977.216.2858",
      "labeltext": null,
      "datebegin": 0,
      "culture": "Roman",
      "exhibitioncount": 0,
      "imagepermissionlevel": 0,
      "mediacount": 0,
      "objectid": 289882,
      "techniqueid": null,
      "dimensions": null,
      "seeAlso": [
        {
          "id": "https://iiif.harvardartmuseums.org/manifests/object/289881",
          "type": "IIIF Manifest",
          "format": "application/json",
          "profile": "http://iiif.io/api/presentation/2/context.json"
        }
      ]
    },
    {
      "copyright": null,
      "contextualtextcount": 0,
      "creditline": "Harvard Art Museums/Arthur M. Sackler Museum, Transfer from the Department of the Classics, Harvard University, Bequest of Henry W. Haynes, 1912",
      "accesslevel": 1,
      "dateoflastpageview": "2015-03-27",
      "classificationid": 45,
      "division": "Asian and Mediterranean Art",
      "markscount": 0,
      "publicationcount": 0,
      "totaluniquepageviews": 3,
      "contact": "am_asianmediterranean@harvard.edu",
      "colorcount": 0,
      "rank": 98011,
      "state": null,
      "id": 289883,
      "verificationleveldescription": "Unchecked. Object information has not been verified for completeness and has not been vetted",
      "period": null,
      "worktypes": [
        {
          "worktypeid": "207",
          "worktype": "lighting device"
        }
      ],
      "imagecount": 1,
      "totalpageviews": 5,
      "accessionyear": 1977,
      "standardreferencenumber": null,
      "signed": null,
      "classification": "Lighting Devices",
      "relatedcount": 0,
      "verificationlevel": 0,
      "primaryimageurl": "https://nrs.harvard.edu/urn-3:HUAM:INV056577_dynmc",
      "titlescount": 1,
      "peoplecount": 0,
      "style": null,
      "lastupdate": "2020-09-16T05:46:28-0400",
      "commentary": null,
      "periodid": null,
      "technique": null,
      "edition": null,
      "description": null,
      "medium": "Terracotta",
      "lendingpermissionlevel": 0,
      "title": "LAMP (BROKEN) UNVARNISHED. DISCUS ORNAMENTAL WITH A RAM RECLINING.",
      "accessionmethod": "Transfer",
      "provenance": null,
      "groupcount": 0,
      "dated": null,
      "department": "Department of Ancient and Byzantine Art & Numismatics",
      "dateend": 0,
      "url": "https://www.harvardartmuseums.org/collections/object/289881",
      "dateoffirstpageview": "2011-04-12",
      "century": null,
      "objectnumber": "1977.216.2858",
      "labeltext": null,
      "datebegin": 0,
      "culture": "Roman",
      "exhibitioncount": 0,
      "imagepermissionlevel": 0,
      "mediacount": 0,
      "objectid": 289884,
      "techniqueid": null,
      "dimensions": null,
      "seeAlso": [
        {
          "id": "https://iiif.harvardartmuseums.org/manifests/object/289881",
          "type": "IIIF Manifest",
          "format": "application/json",
          "profile": "http://iiif.io/api/presentation/2/context.json"
        }
      ]
    },
    {
      "copyright": null,
      "contextualtextcount": 0,
      "creditline": "Harvard Art Museums/Arthur M. Sackler Museum, Transfer from the Department of the Classics, Harvard University, Bequest of Henry W. Haynes, 1912",
      "accesslevel": 1,
      "dateoflastpageview": "2015-03-27",
      "classificationid": 45,
      "division": "Asian and Mediterranean Art",
      "markscount": 0,
      "publicationcount": 0,
      "totaluniquepageviews": 3,
      "contact": "am_asianmediterranean@harvard.edu",
      "colorcount": 0,
      "rank": 98011,
      "state": null,
      "id": 289885,
      "verificationleveldescription": "Unchecked. Object information has not been verified for completeness and has not been vetted",
      "period": null,
      "worktypes": [
        {
          "worktypeid": "207",
          "worktype": "lighting device"
        }
      ],
      "imagecount": 1,
      "totalpageviews": 5,
      "accessionyear": 1977,
      "standardreferencenumber": null,
      "signed": null,
      "classification": "Lighting Devices",
      "relatedcount": 0,
      "verificationlevel": 0,
      "primaryimageurl": "https://nrs.harvard.edu/urn-3:HUAM:INV056577_dynmc",
      "titlescount": 1,
      "peoplecount": 0,
      "style": null,
      "lastupdate": "2020-09-16T05:46:28-0400",
      "commentary": null,
      "periodid": null,
      "technique": null,
      "edition": null,
      "description": null,
      "medium": "Terracotta",
      "lendingpermissionlevel": 0,
      "title": "LAMP (BROKEN) UNVARNISHED. DISCUS ORNAMENTAL WITH A RAM RECLINING.",
      "accessionmethod": "Transfer",
      "provenance": null,
      "groupcount": 0,
      "dated": null,
      "department": "Department of Ancient and Byzantine Art & Numismatics",
      "dateend": 0,
      "url": "https://www.harvardartmuseums.org/collections/object/289881",
      "dateoffirstpageview": "2011-04-12",
      "century": null,
      "objectnumber": "1977.216.2858",
      "labeltext": null,
      "datebegin": 0,
      "culture": "Roman",
      "exhibitioncount": 0,
      "imagepermissionlevel": 0,
      "mediacount": 0,
      "objectid": 289886,
      "techniqueid": null,
      "dimensions": null,
      "seeAlso": [
        {
          "id": "https://iiif.harvardartmuseums.org/manifests/object/289881",
          "type": "IIIF Manifest",
          "format": "application/json",
          "profile": "http://iiif.io/api/presentation/2/context.json"
        }
      ]
    },
    {
      "copyright": null,
      "contextualtextcount": 0,
      "creditline": "Harvard Art Museums/Arthur M. Sackler Museum, Transfer from the Department of the Classics, Harvard University, Bequest of Henry W. Haynes, 1912",
      "accesslevel": 1,
      "dateoflastpageview": "2015-03-27",
      "classificationid": 45,
      "division": "Asian and Mediterranean Art",
      "markscount": 0,
      "publicationcount": 0,
      "totaluniquepageviews": 3,
      "contact": "am_asianmediterranean@harvard.edu",
      "colorcount": 0,
      "rank": 98011,
      "state": null,
      "id": 289887,
      "verificationleveldescription": "Unchecked. Object information has not been verified for completeness and has not been vetted",
      "period": null,
      "worktypes": [
        {
          "worktypeid": "207",
          "worktype": "lighting device"
        }
      ],
      "imagecount": 1,
      "totalpageviews": 5,
      "accessionyear": 1977,
      "standardreferencenumber": null,
      "signed": null,
      "classification": "Lighting Devices",
      "relatedcount": 0,
      "verificationlevel": 0,
      "primaryimageurl": "https://nrs.harvard.edu/urn-3:HUAM:INV056577_dynmc",
      "titlescount": 1,
      "peoplecount": 0,
      "style": null,
      "lastupdate": "2020-09-16T05:46:28-0400",
      "commentary": null,
      "periodid": null,
      "technique": null,
      "edition": null,
      "description": null,
      "medium": "Terracotta",
      "lendingpermissionlevel": 0,
      "title": "LAMP (BROKEN) UNVARNISHED. DISCUS ORNAMENTAL WITH A RAM RECLINING.",
      "accessionmethod": "Transfer",
      "provenance": null,
      "groupcount": 0,
      "dated": null,
      "department": "Department of Ancient and Byzantine Art & Numismatics",
      "dateend": 0,
      "url": "https://www.harvardartmuseums.org/collections/object/289881",
      "dateoffirstpageview": "2011-04-12",
      "century": null,
      "objectnumber": "1977.216.2858",
      "labeltext": null,
      "datebegin": 0,
      "culture": "Roman",
      "exhibitioncount": 0,
      "imagepermissionlevel": 0,
      "mediacount": 0,
      "objectid": 289888,
      "techniqueid": null,
      "dimensions": null,
      "seeAlso": [
        {
          "id": "https://iiif.harvardartmuseums.org/manifests/object/289881",
          "type": "IIIF Manifest",
          "format": "application/json",
          "profile": "http://iiif.io/api/presentation/2/context.json"
        }
      ]
    },
    {
      "copyright": null,
      "contextualtextcount": 0,
      "creditline": "Harvard Art Museums/Arthur M. Sackler Museum, Transfer from the Department of the Classics, Harvard University, Bequest of Henry W. Haynes, 1912",
      "accesslevel": 1,
      "dateoflastpageview": "2015-03-27",
      "classificationid": 45,
      "division": "Asian and Mediterranean Art",
      "markscount": 0,
      "publicationcount": 0,
      "totaluniquepageviews": 3,
      "contact": "am_asianmediterranean@harvard.edu",
      "colorcount": 0,
      "rank": 98011,
      "state": null,
      "id": 289889,
      "verificationleveldescription": "Unchecked. Object information has not been verified for completeness and has not been vetted",
      "period": null,
      "worktypes": [
        {
          "worktypeid": "207",
          "worktype": "lighting device"
        }
      ],
      "imagecount": 1,
      "totalpageviews": 5,
      "accessionyear": 1977,
      "standardreferencenumber": null,
      "signed": null,
      "classification": "Lighting Devices",
      "relatedcount": 0,
      "verificationlevel": 0,
      "primaryimageurl": "https://nrs.harvard.edu/urn-3:HUAM:INV056577_dynmc",
      "titlescount": 1,
      "peoplecount": 0,
      "style": null,
      "lastupdate": "2020-09-16T05:46:28-0400",
      "commentary": null,
      "periodid": null,
      "technique": null,
      "edition": null,
      "description": null,
      "medium": "Terracotta",
      "lendingpermissionlevel": 0,
      "title": "LAMP (BROKEN) UNVARNISHED. DISCUS ORNAMENTAL WITH A RAM RECLINING.",
      "accessionmethod": "Transfer",
      "provenance": null,
      "groupcount": 0,
      "dated": null,
      "department": "Department of Ancient and Byzantine Art & Numismatics",
      "dateend": 0,
      "url": "https://www.harvardartmuseums.org/collections/object/289881",
      "dateoffirstpageview": "2011-04-12",
      "century": null,
      "objectnumber": "1977.216.2858",
      "labeltext": null,
      "datebegin": 0,
      "culture": "Roman",
      "exhibitioncount": 0,
      "imagepermissionlevel": 0,
      "mediacount": 0,
      "objectid": 289880,
      "techniqueid": null,
      "dimensions": null,
      "seeAlso": [
        {
          "id": "https://iiif.harvardartmuseums.org/manifests/object/289881",
          "type": "IIIF Manifest",
          "format": "application/json",
          "profile": "http://iiif.io/api/presentation/2/context.json"
        }
      ]
    }
  ]
}
