// Jest Snapshot v1, https://goo.gl/fbAQLP

exports[`src/components/pages/Culture when data is loaded renders culture page 1`] = `
<section>
  <h2
    data-testid="title"
  >
    Discover artifacts of 
    Indonesian
     culture.
  </h2>
  <div
    data-testid="object_list"
  >
    <a
      href="/item/289881/"
    >
      <section>
        <div>
          <img
            alt="LAMP (BROKEN) UNVARNISHED. DISCUS ORNAMENTAL WITH A RAM RECLINING."
            src="https://nrs.harvard.edu/urn-3:HUAM:INV056577_dynmc?height=300&width=300"
          />
        </div>
        <h3>
          LAMP (BROKEN) UNVARNISHED. DISCUS ORNAMENTAL WITH A RAM RECLINING.
        </h3>
      </section>
    </a>
    <a
      href="/item/289883/"
    >
      <section>
        <div>
          <img
            alt="LAMP (BROKEN) UNVARNISHED. DISCUS ORNAMENTAL WITH A RAM RECLINING."
            src="https://nrs.harvard.edu/urn-3:HUAM:INV056577_dynmc?height=300&width=300"
          />
        </div>
        <h3>
          LAMP (BROKEN) UNVARNISHED. DISCUS ORNAMENTAL WITH A RAM RECLINING.
        </h3>
      </section>
    </a>
    <a
      href="/item/289885/"
    >
      <section>
        <div>
          <img
            alt="LAMP (BROKEN) UNVARNISHED. DISCUS ORNAMENTAL WITH A RAM RECLINING."
            src="https://nrs.harvard.edu/urn-3:HUAM:INV056577_dynmc?height=300&width=300"
          />
        </div>
        <h3>
          LAMP (BROKEN) UNVARNISHED. DISCUS ORNAMENTAL WITH A RAM RECLINING.
        </h3>
      </section>
    </a>
    <a
      href="/item/289887/"
    >
      <section>
        <div>
          <img
            alt="LAMP (BROKEN) UNVARNISHED. DISCUS ORNAMENTAL WITH A RAM RECLINING."
            src="https://nrs.harvard.edu/urn-3:HUAM:INV056577_dynmc?height=300&width=300"
          />
        </div>
        <h3>
          LAMP (BROKEN) UNVARNISHED. DISCUS ORNAMENTAL WITH A RAM RECLINING.
        </h3>
      </section>
    </a>
    <a
      href="/item/289889/"
    >
      <section>
        <div>
          <img
            alt="LAMP (BROKEN) UNVARNISHED. DISCUS ORNAMENTAL WITH A RAM RECLINING."
            src="https://nrs.harvard.edu/urn-3:HUAM:INV056577_dynmc?height=300&width=300"
          />
        </div>
        <h3>
          LAMP (BROKEN) UNVARNISHED. DISCUS ORNAMENTAL WITH A RAM RECLINING.
        </h3>
      </section>
    </a>
  </div>
</section>
`;
